// Jest Snapshot v1, https://goo.gl/fbAQLP

exports[`PartyQueue renders correctly 1`] = `
<div
  aria-atomic="true"
  aria-live="assertive"
  class="fade toast show"
  role="alert"
>
  <div
    class="toast-header"
  >
    <span
      class="mr-auto"
    >
      party
       - 
      2
    </span>
    <button
      class="close ml-2 mb-1"
      data-dismiss="toast"
      type="button"
    >
      <span
        aria-hidden="true"
      >
        ×
      </span>
      <span
        class="sr-only"
      >
        Close
      </span>
    </button>
  </div>
</div>
`;
